{
  "coord": {
    "lon": 12.24,
    "lat": 44.14
  },
  "weather": [
    {
      "id": 800,
      "main": "Clear",
      "description": "clear sky",
      "icon": "01n"
    }
  ],
  "base": "stations",
  "main": {
    "temp": 4.61,
    "feels_like": 2.51,
    "temp_min": 3.89,
    "temp_max": 5,
    "pressure": 1024,
    "humidity": 93
  },
  "visibility": 10000,
  "wind": {
    "speed": 1,
    "deg": 250
  },
  "clouds": {
    "all": 0
  },
  "dt": 1606331354,
  "sys": {
    "type": 1,
    "id": 6756,
    "country": "IT",
    "sunrise": 1606285180,
    "sunset": 1606318618
  },
  "timezone": 3600,
  "id": 3178957,
  "name": "Cesena",
  "cod": 200
}